/Users/hjanrao/RestAssignment/src/test/java/utils/Utils.java
/Users/hjanrao/RestAssignment/src/test/java/constants/Services.java
/Users/hjanrao/RestAssignment/src/test/java/schema/ManufacturerSchema.java
/Users/hjanrao/RestAssignment/src/test/java/services/Manufacturer.java
/Users/hjanrao/RestAssignment/src/test/java/schema/BuiltDatesSchema.java
/Users/hjanrao/RestAssignment/src/test/java/stepdefs/CarStepDefinitions.java
/Users/hjanrao/RestAssignment/src/test/java/utils/PropertyUtils.java
/Users/hjanrao/RestAssignment/src/test/java/services/MainTypes.java
/Users/hjanrao/RestAssignment/src/test/java/services/BuildDates.java
/Users/hjanrao/RestAssignment/src/test/java/runner/Runner.java
/Users/hjanrao/RestAssignment/src/test/java/schema/MainTypeSchema.java
